{
"joe":"208688963936845824",
"james":"233667448887312385",
"spark":"519209268910620673",
"dio":"495616365374341126",
"joescloud":"500563668119846913",
"sparkrole":"519211353328582676",
"sparkdevrole":"519217567034769408",
"helpinghands":"519217883201404968",
"staff":"500565070808612871",
"russ":"489003898783399937",
"todochannel":"500619853485309952",
"consolelogchannel":"520329382208733194",
"bugschannel":"519221157644337163",
"devchannel":"519221111183900692",
"errorchannel":"520997219470540810"
}